{
    "type": "code",
    "side":  "client",
    "modid": "vsprospectorinfo",
    "name": "vsprospectorinfo",
    "author": "Capsup",
    "description": "Adds info to the tooltip for chunks that are already prospected and renders them on the map",
    "version": "3.1.0",
    "dependency": {
        "game": ""
    }
}
